{
  "id": "5e73c4d37a38dd291930381f",
  "created": "2020-03-16T14:25:57.227Z",
  "createdBy": "vikram.ramesh",
  "lastUpdated": "2020-03-31T20:18:48.650Z",
  "lastUpdatedBy": "vikram.ramesh",
  "name": "Mongo_CRUD_Document_Form",
  "description": null,
  "struct": {
    "nodeId": "0576762b-7171-4026-8247-0ded0c1de434",
    "type": "array",
    "items": [
      {
        "nodeId": "52a9e6a4-0130-4850-88c1-cae89dfb1172",
        "type": "string",
        "title": "First Name",
        "description": "First Name",
        "placeholder": "",
        "required": false
      },
      {
        "nodeId": "a8c2277c-000b-424b-b6db-e356cc06eefc",
        "type": "string",
        "title": "Last Name",
        "description": "Last Name",
        "placeholder": "",
        "required": false
      },
      {
        "nodeId": "8de09de5-7815-4048-aa6f-d2ae0f22d4e3",
        "type": "string",
        "title": "Email",
        "description": "Email",
        "placeholder": "",
        "required": false
      }
    ]
  },
  "schema": {
    "title": "Mongo_CRUD_Document_Form",
    "description": "",
    "type": "object",
    "required": [],
    "properties": {
      "firstName": {
        "type": "string",
        "title": "First Name",
        "description": "First Name"
      },
      "lastName": {
        "type": "string",
        "title": "Last Name",
        "description": "Last Name"
      },
      "email": {
        "type": "string",
        "title": "Email",
        "description": "Email"
      }
    }
  },
  "uiSchema": {},
  "bindingSchema": {},
  "validationSchema": {},
  "version": "2019.3"
}