{
  "name": "Mongo_Update",
  "tasks": {
    "840": {
      "name": "ViewData",
      "canvasName": "ViewData",
      "summary": "Error Searching Document",
      "description": "View data in a pretty format",
      "location": "Application",
      "app": "WorkFlowEngine",
      "displayName": "Tools",
      "type": "manual",
      "variables": {
        "incoming": {
          "header": "Error Searching Document",
          "message": "An error occurred while searching for the object",
          "body": "",
          "btn_success": "Retry",
          "btn_failure": "Exit WorkFlow"
        },
        "outgoing": {},
        "translations": [],
        "error": ""
      },
      "view": "/workflow_engine/task/ViewData",
      "deprecated": false,
      "matched": [
        {
          "key": "canvasName",
          "highlightString": "<span class='highlight-string'>ViewData</span>"
        }
      ],
      "groups": [
        {
          "name": "Itential Artifact",
          "description": "This group is to be used in conjunction with all Itential generated Artifacts",
          "provenance": "Pronghorn"
        }
      ],
      "x": 0.6597582037996546,
      "y": 0.8238636363636364,
      "scheduled": false
    },
    "workflow_start": {
      "name": "workflow_start",
      "groups": [],
      "x": -0.37305699481865284,
      "y": 0.53125
    },
    "workflow_end": {
      "name": "workflow_end",
      "groups": [],
      "x": 1.342832469775475,
      "y": 1.203125
    },
    "fadb": {
      "name": "childJob",
      "canvasName": "childJob",
      "summary": "Run Child Job",
      "description": "Run a child Job inside a Workflow",
      "location": "Application",
      "locationType": null,
      "app": "WorkFlowEngine",
      "displayName": "WorkFlowEngine",
      "type": "operation",
      "variables": {
        "incoming": {
          "task": "",
          "workflow": "Mongo_CRUD_Child_WF",
          "variables": {
            "adapterName": {
              "variable": "",
              "task": "job",
              "editable": true,
              "value": "adapterName"
            },
            "entity": {
              "variable": "",
              "task": "job",
              "editable": true,
              "value": "collectionName"
            }
          }
        },
        "outgoing": {
          "job_details": null
        }
      },
      "deprecated": false,
      "matched": [
        {
          "key": "canvasName",
          "highlightString": "<span class='highlight-string'>child</span>Job"
        },
        {
          "key": "summary",
          "highlightString": "Run <span class='highlight-string'>Child</span> Job"
        },
        {
          "key": "description",
          "highlightString": "Run a <span class='highlight-string'>child</span> Job inside a Workflow"
        }
      ],
      "groups": [],
      "actor": "job",
      "x": -0.24438687392055267,
      "y": 0.53125
    },
    "b509": {
      "name": "query",
      "canvasName": "query",
      "summary": "Query Data Using 'json-query' Format",
      "description": "Query data using a dot/bracket notation string and a matching key/value pair.",
      "location": "Application",
      "locationType": null,
      "app": "WorkFlowEngine",
      "displayName": "WorkFlowEngine",
      "type": "operation",
      "variables": {
        "incoming": {
          "pass_on_null": false,
          "query": "searched_results.response[*_id]",
          "obj": "$var.fadb.job_details"
        },
        "outgoing": {
          "return_data": null
        },
        "translations": [],
        "error": ""
      },
      "deprecated": false,
      "matched": [
        {
          "key": "canvasName",
          "highlightString": "<span class='highlight-string'>query</span>"
        },
        {
          "key": "summary",
          "highlightString": "<span class='highlight-string'>Query</span> Data Using 'json-query' Format"
        },
        {
          "key": "description",
          "highlightString": "<span class='highlight-string'>Query</span> data using a dot/bracket notation string and a matching key/value pair."
        }
      ],
      "groups": [],
      "x": -0.11830742659758203,
      "y": 0.53125,
      "scheduled": false
    },
    "78ee": {
      "name": "merge",
      "canvasName": "merge",
      "summary": "Merge Data for Update",
      "description": "Merge data into a single object",
      "location": "Application",
      "locationType": null,
      "app": "WorkFlowEngine",
      "displayName": "WorkFlowEngine",
      "type": "operation",
      "variables": {
        "incoming": {
          "data_to_merge": [
            {
              "key": "ids",
              "value": {
                "task": "b509",
                "variable": "return_data"
              }
            }
          ]
        },
        "outgoing": {
          "merged_object": null
        }
      },
      "deprecated": false,
      "matched": [
        {
          "key": "canvasName",
          "highlightString": "<span class='highlight-string'>merge</span>"
        },
        {
          "key": "summary",
          "highlightString": "<span class='highlight-string'>Merge</span> Data"
        },
        {
          "key": "description",
          "highlightString": "<span class='highlight-string'>Merge</span> data into a single object"
        }
      ],
      "groups": [],
      "x": -0.017271157167530225,
      "y": 0.5355113636363636
    },
    "e595": {
      "name": "ProviderForm",
      "canvasName": "ProviderForm",
      "summary": "Show Form and Set Dropdown List Values",
      "description": "Display any form created with the Form Builder IAP application. Form dropdown lists display a fixed set of choices. Static dropdown choices can be configured in Form Builder as properties for the control. This task will dynamically set dropdown lists' choices or replace static dropdown lists' choices when the dropdown list is not located in a form table.",
      "location": "Application",
      "app": "FormBuilder",
      "displayName": "Forms",
      "type": "manual",
      "variables": {
        "incoming": {
          "form_name": "Document List",
          "instance_data": "",
          "provider_data": "$var.78ee.merged_object"
        },
        "outgoing": {
          "export": null
        },
        "translations": [],
        "error": ""
      },
      "view": "/formbuilder/task/ProviderForm",
      "deprecated": false,
      "matched": [
        {
          "key": "canvasName",
          "highlightString": "<span class='highlight-string'>Provider</span>Form"
        }
      ],
      "groups": [
        {
          "name": "Itential Artifact",
          "description": "This group is to be used in conjunction with all Itential generated Artifacts",
          "provenance": "Pronghorn"
        }
      ],
      "x": 0.14853195164075994,
      "y": 0.53125,
      "scheduled": false
    },
    "34fd": {
      "name": "query",
      "canvasName": "query",
      "summary": "Query Selected Document",
      "description": "Query data using a dot/bracket notation string and a matching key/value pair.",
      "location": "Application",
      "locationType": null,
      "app": "WorkFlowEngine",
      "displayName": "WorkFlowEngine",
      "type": "operation",
      "variables": {
        "incoming": {
          "pass_on_null": false,
          "query": "ids[0]",
          "obj": "$var.e595.export"
        },
        "outgoing": {
          "return_data": null
        },
        "translations": [],
        "error": ""
      },
      "deprecated": false,
      "matched": [
        {
          "key": "canvasName",
          "highlightString": "<span class='highlight-string'>query</span>"
        },
        {
          "key": "summary",
          "highlightString": "<span class='highlight-string'>Query</span> Data Using 'json-query' Format"
        },
        {
          "key": "description",
          "highlightString": "<span class='highlight-string'>Query</span> data using a dot/bracket notation string and a matching key/value pair."
        }
      ],
      "groups": [],
      "x": 0.344559585492228,
      "y": 0.5298295454545454,
      "scheduled": false
    },
    "50b1": {
      "name": "merge",
      "canvasName": "merge",
      "summary": "Merge Data",
      "description": "Merge data into a single object",
      "location": "Application",
      "locationType": null,
      "app": "WorkFlowEngine",
      "displayName": "WorkFlowEngine",
      "type": "operation",
      "variables": {
        "incoming": {
          "data_to_merge": [
            {
              "key": "_id",
              "value": {
                "task": "34fd",
                "variable": "return_data"
              }
            }
          ]
        },
        "outgoing": {
          "merged_object": null
        }
      },
      "deprecated": false,
      "matched": [
        {
          "key": "canvasName",
          "highlightString": "<span class='highlight-string'>merge</span>"
        },
        {
          "key": "summary",
          "highlightString": "<span class='highlight-string'>Merge</span> Data"
        },
        {
          "key": "description",
          "highlightString": "<span class='highlight-string'>Merge</span> data into a single object"
        }
      ],
      "groups": [],
      "x": 0.4542314335060449,
      "y": 0.5340909090909091
    },
    "35e": {
      "name": "searchById",
      "canvasName": "searchById",
      "summary": "Search for item by id in the collection in the database",
      "description": "Search for item by id in the collection in the database",
      "location": "Adapter",
      "locationType": "DBMongo",
      "app": "DBMongo",
      "displayName": "DBMongo",
      "type": "automatic",
      "variables": {
        "incoming": {
          "collectionName": "$var.job.collectionName",
          "id": "$var.34fd.return_data",
          "adapter_id": "$var.job.adapterName"
        },
        "outgoing": {
          "result": null
        },
        "translations": [],
        "error": ""
      },
      "deprecated": false,
      "matched": [
        {
          "key": "canvasName",
          "highlightString": "<span class='highlight-string'>searchBy</span>Id"
        }
      ],
      "groups": [],
      "actor": "Pronghorn",
      "x": 0.6588946459412781,
      "y": 0.5369318181818182,
      "scheduled": false
    },
    "e5ca": {
      "name": "query",
      "canvasName": "query",
      "summary": "Query Data Using 'json-query' Format",
      "description": "Query data using a dot/bracket notation string and a matching key/value pair.",
      "location": "Application",
      "locationType": null,
      "app": "WorkFlowEngine",
      "displayName": "WorkFlowEngine",
      "type": "operation",
      "variables": {
        "incoming": {
          "pass_on_null": false,
          "query": ".response",
          "obj": "$var.35e.result"
        },
        "outgoing": {
          "return_data": null
        },
        "translations": [],
        "error": ""
      },
      "deprecated": false,
      "matched": [
        {
          "key": "canvasName",
          "highlightString": "<span class='highlight-string'>query</span>"
        },
        {
          "key": "summary",
          "highlightString": "<span class='highlight-string'>Query</span> Data Using 'json-query' Format"
        },
        {
          "key": "description",
          "highlightString": "<span class='highlight-string'>Query</span> data using a dot/bracket notation string and a matching key/value pair."
        }
      ],
      "groups": [],
      "x": 0.8747841105354058,
      "y": 0.5355113636363636,
      "scheduled": false
    },
    "7c53": {
      "name": "ShowJsonForm",
      "canvasName": "ShowJsonForm",
      "summary": "Show Json Form",
      "description": "Show Json Form",
      "location": "Application",
      "app": "JsonForms",
      "displayName": "JsonForms",
      "type": "manual",
      "variables": {
        "incoming": {
          "form_id": "Mongo_CRUD_Document_Form",
          "instance_data": "$var.e5ca.return_data"
        },
        "outgoing": {
          "export": null
        },
        "translations": [],
        "error": ""
      },
      "view": "/json-forms/task/ShowJsonForm",
      "deprecated": false,
      "matched": [
        {
          "key": "canvasName",
          "highlightString": "<span class='highlight-string'>ShowJson</span>Form"
        }
      ],
      "groups": [
        {
          "name": "Itential Artifact",
          "description": "This group is to be used in conjunction with all Itential generated Artifacts",
          "provenance": "Pronghorn"
        }
      ],
      "x": 1.0293609671848014,
      "y": 0.5255681818181818,
      "scheduled": false
    },
    "7cf0": {
      "name": "findAndModify",
      "canvasName": "findAndModify",
      "summary": "Update an item in the collection in the database",
      "description": "Update an item item by id in the collection in the database",
      "location": "Adapter",
      "locationType": "DBMongo",
      "app": "DBMongo",
      "displayName": "DBMongo",
      "type": "automatic",
      "variables": {
        "incoming": {
          "collectionName": "$var.job.collectionName",
          "filter": "$var.50b1.merged_object",
          "sort": "",
          "data": "$var.7c53.export",
          "multi": "",
          "upsert": "",
          "adapter_id": "$var.job.adapterName"
        },
        "outgoing": {
          "result": null
        },
        "translations": [],
        "error": ""
      },
      "deprecated": false,
      "matched": [
        {
          "key": "canvasName",
          "highlightString": "<span class='highlight-string'>findAnd</span>Modify"
        }
      ],
      "groups": [],
      "actor": "Pronghorn",
      "x": 1.2746113989637307,
      "y": 0.5284090909090909,
      "scheduled": false
    },
    "65d": {
      "name": "ViewData",
      "canvasName": "ViewData",
      "summary": "Error Updating Document",
      "description": "View data in a pretty format",
      "location": "Application",
      "app": "WorkFlowEngine",
      "displayName": "Tools",
      "type": "manual",
      "variables": {
        "incoming": {
          "header": "Error Updating Document",
          "message": "An error occurred while updating the object",
          "body": "",
          "btn_success": "Retry",
          "btn_failure": "Exit"
        },
        "outgoing": {},
        "translations": [],
        "error": ""
      },
      "view": "/workflow_engine/task/ViewData",
      "deprecated": false,
      "matched": [
        {
          "key": "canvasName",
          "highlightString": "<span class='highlight-string'>ViewData</span>"
        }
      ],
      "groups": [
        {
          "name": "Itential Artifact",
          "description": "This group is to be used in conjunction with all Itential generated Artifacts",
          "provenance": "Pronghorn"
        }
      ],
      "x": 1.268566493955095,
      "y": 0.8167613636363636,
      "scheduled": false
    },
    "9ea8": {
      "name": "ViewData",
      "canvasName": "ViewData",
      "summary": "Update successful",
      "description": "View data in a pretty format",
      "location": "Application",
      "app": "WorkFlowEngine",
      "displayName": "Tools",
      "type": "manual",
      "variables": {
        "incoming": {
          "header": "Update successful",
          "message": "Successfully Updated the document",
          "body": "",
          "btn_success": "Success",
          "btn_failure": ""
        },
        "outgoing": {},
        "translations": [],
        "error": ""
      },
      "view": "/workflow_engine/task/ViewData",
      "deprecated": false,
      "matched": [
        {
          "key": "canvasName",
          "highlightString": "<span class='highlight-string'>ViewData</span>"
        }
      ],
      "groups": [
        {
          "name": "Itential Artifact",
          "description": "This group is to be used in conjunction with all Itential generated Artifacts",
          "provenance": "Pronghorn"
        }
      ],
      "x": 1.5328151986183074,
      "y": 0.5227272727272727,
      "scheduled": false
    }
  },
  "transitions": {
    "840": {
      "35e": {
        "type": "revert",
        "state": "success"
      },
      "workflow_end": {
        "type": "standard",
        "state": "success"
      }
    },
    "workflow_start": {
      "fadb": {
        "type": "standard",
        "state": "success"
      }
    },
    "workflow_end": {},
    "fadb": {
      "b509": {
        "type": "standard",
        "state": "success"
      }
    },
    "b509": {
      "78ee": {
        "type": "standard",
        "state": "success"
      }
    },
    "78ee": {
      "e595": {
        "type": "standard",
        "state": "success"
      }
    },
    "e595": {
      "34fd": {
        "type": "standard",
        "state": "success"
      }
    },
    "34fd": {
      "50b1": {
        "type": "standard",
        "state": "success"
      }
    },
    "50b1": {
      "35e": {
        "type": "standard",
        "state": "success"
      }
    },
    "35e": {
      "840": {
        "type": "standard",
        "state": "error"
      },
      "e5ca": {
        "type": "standard",
        "state": "success"
      }
    },
    "e5ca": {
      "7c53": {
        "type": "standard",
        "state": "success"
      }
    },
    "7c53": {
      "7cf0": {
        "type": "standard",
        "state": "success"
      }
    },
    "7cf0": {
      "65d": {
        "type": "standard",
        "state": "error"
      },
      "9ea8": {
        "type": "standard",
        "state": "success"
      }
    },
    "65d": {
      "workflow_end": {
        "type": "standard",
        "state": "success"
      },
      "7cf0": {
        "type": "revert",
        "state": "success"
      }
    },
    "9ea8": {
      "workflow_end": {
        "type": "standard",
        "state": "success"
      }
    }
  },
  "font_size": 12,
  "created": "2020-04-01T19:19:03.841Z",
  "created_by": {
    "provenance": "Itential LDAP",
    "username": "vikram.ramesh",
    "firstname": "Vikram",
    "inactive": false
  },
  "createdVersion": "5.5.9-2019.3.0.0",
  "groups": [],
  "last_updated": "2020-04-01T21:21:46.337Z",
  "last_updated_by": {
    "provenance": "Itential LDAP",
    "username": "vikram.ramesh",
    "firstname": "Vikram",
    "inactive": false
  },
  "lastUpdatedVersion": "5.5.9-2019.3.0.0",
  "type": "automation",
  "description": null,
  "tags": []
}